#Date	By	SNo	What	More	Macro
14 Feb 2021	Raj Thilak	1	Disciple: How do I surrender to what ever happens?	Master: Like a dumb person keeping a vow of silence	raj-thilak
14 Feb 2021	Raj Thilak	2	Disciple: What is insight into one's true nature?	Master: Seeing the mirror in the reflection.	raj-thilak
14 Feb 2021	Raj Thilak	3	Disciple: Can the absolute be known	Master: Can you see vision.	raj-thilak
14 Feb 2021	Raj Thilak	4	Disciple: What causes englightenment?	Master: The understanding that enlightenment cannot be caused causes enlightenment.	raj-thilak
14 Feb 2021	Raj Thilak	5	Disciple: How do I improve the world	Master: By realizing that it is perfect	raj-thilak
14 Feb 2021	Raj Thilak	6	Disciple: What is Ego	Master: A owner who is a thief	raj-thilak
14 Feb 2021	Raj Thilak	7	Disciple: What is the universe made of?	Master: The same stuff dreams are made of.	raj-thilak
14 Feb 2021	Raj Thilak	8	Disciple: What blocks me from seeeing	Master: You having the end in view	raj-thilak
14 Feb 2021	Raj Thilak	9	Disciple: How can I know when I am enlightened?	Master: The words "good fortune" and "bad fortune" will lose their meaning.	raj-thilak
14 Feb 2021	Raj Thilak	10	Disciple: Do Miracles happen?	Master: Isn't the order of nature more of a miracle that a miracle that defied the order of nature?	raj-thilak
2015	Imran	11	Indian religion has always felt that since the minds, the temperaments...	and the intellectual affinities of men are unlimited in their variety, a perfect liberty of thought and of worship must be allowed to the individual in his approach to the Infinite.	sri-aurobindo
2015	Imran	12	Evolution is not finished; reason is not the last word...	 nor the reasoning animal the supreme figure of Nature. As man emerged out of the animal, so out of man the superman emerges.	sri-aurobindo
2015	Imran	13	Spirituality is the master key of the Indian mind. It is this dominant inclination of India which gives character to all the expressions of her culture...	In fact, they have grown out of her inborn spiritual tendency of which her religion is a natural out flowering. The Indian mind has always realized that the Supreme is the Infinite and perceived that to the soul in Nature the Infinite must always present itself in an infinite variety of aspects.	sri-aurobindo
2015	Imran	14	The Hindu religion appears... as a cathedral temple, half in ruins...	noble in the mass, often fantastic in detail but always fantastic with a significance - crumbling or badly outworn in places, but a cathedral temple in which service is still done to the Unseen and its real presence can be felt by those who enter with the right spirit.	sri-aurobindo
2015	Imran	15	If a religion is not universal, it cannot be eternal. A narrow religion, a sectarian religion, an exclusive religion can live only for a limited time and a limited purpose. This is the one religion that can triumph over materialism by including and anticipating the discoveries of science and the speculations of philosophy.		sri-aurobindo
18 Feb 2021	Imran	16	I am constantly reminded that the Earth is dying and were not moving fast enough to save her	Lets join hands and <a href="https://imran.yieldmore.org/dear-mother/" target="_blank">save our Mother Earth</a>.	imran
23 Feb 2021	Imran	17	Where there is joy in the heart and the person is in intimate touch with the cosmos, there poetry reigns!	When it's brimming from the soul, there in every motion, every thought, then humankind will lead the Life Divine [link] - such is the power of the future poetry [link]	imran
23 Feb 2021	Imran	18	If only we learn to let go of our cares and niggles, even if only for a moment, there we find bliss	and thus enraptured, we are lead to 'spontaneous creation and expression'. Some call this flow state, some call this Samadi - I call this poetry	imran