#Level	Page	Name	HasSubmenu	Keywords	Description
1	explore	Explore	Y		The Conscious Marketplace where you can find programs and people who will help in healing and individual / social development.
1	amadeus	Amadeus Web Builder			A flat file CMS / Web Builder built by Imran in 2019 based on 15 years of experience making websites.
1	iviewer	IViewer Music Player			The 20 year old player of Imran which will soon be used to create the /drive/ and teachmeyoga.in content.
1	centres	YM Centres (Appeal / Overview)	Y		Originally called Joyland, Wish Centres facilitate personal healing and growth by integrating approaches from multiple disciplines.
2	work	YM at Work			This article from 2019 discusses the benefits of running a WoW / Wish Centre in companies and how this provides support to families too.
2	country-roads	Country Roads			For various politicians, state departments, civil workers and activists to publicize the day to day work that they do
2	portal	Portal			A portal is being developed for YM for mass broadcasting of information and articles.
2	catalyze	YM at Work - Interviews			An old series of interview questions that makes the team leader rethink his role and contribution to the success of his/her peers.
2	sunlight	YM at Work - Consulting			A paper from Sep 2019 on how a company can strive for Organizational Excellence, all by themselves - if they put their mind to it.
1	people	People	Y		A list of all people associated with YieldMore.org
2	cheyenne	Cheyenne			A young musician / author who shares the inspiration of Tolkien with Imran.
2	storytellers	Storytellers			For now, simply links to storytellinginstitute.org and it's cofounder Eric Miller.